lib/smtdv_common/test/sim/test_xbus.vcd
$date
    Aug 17, 2015  11:43:14
$end
$version
    TOOL:	ncsim(64)	13.10-s011
$end
$timescale
    10 ps
$end

$scope module top $end
$var parameter 32 !    ADDR_WIDTH  $end
$var parameter 32 "    BYTEN_WIDTH  $end
$var parameter 32 #    DATA_WIDTH  $end
$var reg       1 $    clk  $end
$var reg       1 %    resetn  $end
$var wire      1 &    w_req [0] $end
$var wire      1 '    w_rw [0] $end
$var wire     32 (    w_addr [31:0] $end
$var wire      1 )    w_ack [0] $end
$var wire      4 *    w_byten [3:0] $end
$var wire     32 +    w_rdata [31:0] $end
$var wire     32 ,    w_wdata [31:0] $end

$scope module xbus_rst_if $end
$var reg       1 -    rst  $end
$var parameter 88 .    if_name  $end
$var parameter 64 /    PWRST_PERIOD [63:0] $end
$var parameter  1 0    POLARITY  $end
$var time     64 1    deassert_period_before_pwrst  $end

$scope begin unmblk1 $end
$var time     64 2    rand_period  $end
$upscope $end

$upscope $end


$scope module u_xbus_slave_0 $end
$var parameter 32 3    ADDR_WIDTH  $end
$var parameter 32 4    BYTEN_WIDTH  $end
$var parameter 32 5    DATA_WIDTH  $end
$var wire      1 6    clk [0] $end
$var wire      1 7    resetn [0] $end
$var wire      1 &    req [0] $end
$var wire      1 '    rw [0] $end
$var wire     32 (    addr [31:0] $end
$var wire      1 )    ack [0] $end
$var wire      4 *    byten [3:0] $end
$var reg      32 8    rdata [31:0] $end
$var wire     32 ,    wdata [31:0] $end
$upscope $end


$scope module xbus_slave_if_harness_0 $end
$var parameter 32 9    ADDR_WIDTH [31:0] $end
$var parameter 32 :    BYTEN_WIDTH [31:0] $end
$var parameter 32 ;    DATA_WIDTH [31:0] $end
$var wire      1 6    clk  $end
$var wire      1 7    resetn  $end
$var wire      1 &    req [0] $end
$var wire      1 '    rw [0] $end
$var wire     32 (    addr [31:0] $end
$var wire      1 )    ack [0] $end
$var wire      4 *    byten [3:0] $end
$var wire      1 <    rdata [31] $end
$var wire      1 =    rdata [30] $end
$var wire      1 >    rdata [29] $end
$var wire      1 ?    rdata [28] $end
$var wire      1 @    rdata [27] $end
$var wire      1 A    rdata [26] $end
$var wire      1 B    rdata [25] $end
$var wire      1 C    rdata [24] $end
$var wire      1 D    rdata [23] $end
$var wire      1 E    rdata [22] $end
$var wire      1 F    rdata [21] $end
$var wire      1 G    rdata [20] $end
$var wire      1 H    rdata [19] $end
$var wire      1 I    rdata [18] $end
$var wire      1 J    rdata [17] $end
$var wire      1 K    rdata [16] $end
$var wire      1 L    rdata [15] $end
$var wire      1 M    rdata [14] $end
$var wire      1 N    rdata [13] $end
$var wire      1 O    rdata [12] $end
$var wire      1 P    rdata [11] $end
$var wire      1 Q    rdata [10] $end
$var wire      1 R    rdata [9] $end
$var wire      1 S    rdata [8] $end
$var wire      1 T    rdata [7] $end
$var wire      1 U    rdata [6] $end
$var wire      1 V    rdata [5] $end
$var wire      1 W    rdata [4] $end
$var wire      1 X    rdata [3] $end
$var wire      1 Y    rdata [2] $end
$var wire      1 Z    rdata [1] $end
$var wire      1 [    rdata [0] $end
$var wire     32 ,    wdata [31:0] $end
$var reg       1 \    has_force  $end

$scope module vif $end
$var parameter 32 ]    ADDR_WIDTH [31:0] $end
$var parameter 32 ^    BYTEN_WIDTH [31:0] $end
$var parameter 32 _    DATA_WIDTH [31:0] $end
$var wire      1 6    clk  $end
$var wire      1 7    resetn  $end
$var reg       1 `    req [0:0] $end
$var reg       1 a    rw [0:0] $end
$var reg      32 b    addr [31:0] $end
$var reg       1 c    ack [0:0] $end
$var reg       4 d    byten [3:0] $end
$var reg      32 e    rdata [31:0] $end
$var reg      32 f    wdata [31:0] $end
$var reg       1 g    has_checks  $end
$var reg       1 h    has_coverage  $end
$var reg       1 i    has_performance  $end
$var reg       1 j    has_force  $end
$var reg      64 k    cyc [63:0] $end

$scope clocking slave $end
$var reg       1 l    clk  $end
$var reg       1 m    resetn  $end
$var reg       1 n    req [0] $end
$var reg       1 o    rw [0] $end
$var reg      32 p    addr [31:0] $end
$var reg       1 q    ack [0] $end
$var reg       4 r    byten [3:0] $end
$var reg      32 s    wdata [31:0] $end
$var reg      32 t    rdata [31:0] $end
$upscope $end


$scope clocking master $end
$var reg       1 u    clk  $end
$var reg       1 v    resetn  $end
$var reg       1 w    req [0] $end
$var reg       1 x    rw [0] $end
$var reg      32 y    addr [31:0] $end
$var reg       1 z    ack [0] $end
$var reg       4 {    byten [3:0] $end
$var reg      32 |    wdata [31:0] $end
$var reg      32 }    rdata [31:0] $end
$upscope $end

$upscope $end

$upscope $end

$upscope $end

$enddefinitions $end
$dumpvars
b100000 _
b100 ^
b100000 ]
b100000 ;
b100 :
b100000 9
b100000 5
b100 4
b100000 3
00
b1001110001000 /
b1000000000000000000000000000000001100000000000000000000000010010000 .
b100000 #
b100 "
b100000 !
0$
1%
z&
z'
bz (
z)
bz *
bx +
bz ,
1-
b1111101000 1
b100011 2
06
17
bx 8
x<
x=
x>
x?
x@
xA
xB
xC
xD
xE
xF
xG
xH
xI
xJ
xK
xL
xM
xN
xO
xP
xQ
xR
xS
xT
xU
xV
xW
xX
xY
xZ
x[
1\
z`
za
bx b
xc
bx d
bx e
bx f
1g
1h
1i
0j
b1 k
xl
xm
xn
xo
bx p
xq
bx r
bx s
bx t
xu
xv
xw
xx
bx y
xz
bx {
bx |
bx }
$end
#500
1$
16
0u
1v
0l
1m
zn
zo
#600
0`
0w
0a
0x
b0 b
b0 y
b0 d
b0 {
b0 f
b0 |
0c
0q
b0 e
b0 t
0)
0[
0Z
0Y
0X
0W
0V
0U
0T
0S
0R
0Q
0P
0O
0N
0M
0L
0K
0J
0I
0H
0G
0F
0E
0D
0C
0B
0A
0@
0?
0>
0=
0<
#1000
0$
06
b10 k
#1500
1$
16
0z
b0 }
0n
0o
b0 p
b0 r
b0 s
#2000
0$
06
b11 k
#2500
1$
16
#3000
0$
06
b100 k
#3500
0-
1$
16
0%
07
#4000
0$
06
b101 k
#4500
1$
16
0v
0m
#5000
0$
06
b110 k
#5500
1$
16
#6000
0$
06
b111 k
#6500
1$
16
#7000
0$
06
b1000 k
#7500
1$
16
#8000
0$
06
b1001 k
#8500
1$
16
#9000
0$
06
b1010 k
#9500
1$
16
#10000
0$
06
b1011 k
#10500
1$
16
#11000
0$
06
b1100 k
#11500
1$
16
#12000
0$
06
b1101 k
#12500
1$
16
#13000
0$
06
b1110 k
#13500
1$
16
#14000
0$
06
b1111 k
#14500
1$
16
#15000
0$
06
b10000 k
#15500
1$
16
#16000
0$
06
b10001 k
#16500
1$
16
#17000
0$
06
b10010 k
#17500
1$
16
#18000
0$
06
b10011 k
#18500
1$
16
#19000
0$
06
b10100 k
#19500
1$
16
#20000
0$
06
b10101 k
#20500
1$
16
#21000
0$
06
b10110 k
#21500
1$
16
#22000
0$
06
b10111 k
#22500
1$
16
#23000
0$
06
b11000 k
#23500
1$
16
#24000
0$
06
b11001 k
#24500
1$
16
#25000
0$
06
b11010 k
#25500
1$
16
#26000
0$
06
b11011 k
#26500
1$
16
#27000
0$
06
b11100 k
#27500
1$
16
#28000
0$
06
b11101 k
#28500
1$
16
#29000
0$
06
b11110 k
#29500
1$
16
#30000
0$
06
b11111 k
#30500
1$
16
#31000
0$
06
b100000 k
#31500
1$
16
#32000
0$
06
b100001 k
#32500
1$
16
#33000
0$
06
b100010 k
#33500
1$
16
#34000
0$
06
b100011 k
#34500
1$
16
#35000
0$
06
b100100 k
#35500
1$
16
#36000
0$
06
b100101 k
#36500
1$
16
#37000
0$
06
b100110 k
#37500
1$
16
#38000
0$
06
b100111 k
#38500
1$
16
#39000
0$
06
b101000 k
#39500
1$
16
#40000
0$
06
b101001 k
#40500
1$
16
#41000
0$
06
b101010 k
#41500
1$
16
#42000
0$
06
b101011 k
#42500
1$
16
#43000
0$
06
b101100 k
#43500
1$
16
#44000
0$
06
b101101 k
#44500
1$
16
#45000
0$
06
b101110 k
#45500
1$
16
#46000
0$
06
b101111 k
#46500
1$
16
#47000
0$
06
b110000 k
#47500
1$
16
#48000
0$
06
b110001 k
#48500
1$
16
#49000
0$
06
b110010 k
#49500
1$
16
#50000
0$
06
b110011 k
#50500
1$
16
#51000
0$
06
b110100 k
#51500
1$
16
#52000
0$
06
b110101 k
#52500
1$
16
#53000
0$
06
b110110 k
#53500
1$
16
#54000
0$
06
b110111 k
#54500
1$
16
#55000
0$
06
b111000 k
#55500
1$
16
#56000
0$
06
b111001 k
#56500
1$
16
#57000
0$
06
b111010 k
#57500
1$
16
#58000
0$
06
b111011 k
#58500
1$
16
#59000
0$
06
b111100 k
#59500
1$
16
#60000
0$
06
b111101 k
#60500
1$
16
#61000
0$
06
b111110 k
#61500
1$
16
#62000
0$
06
b111111 k
#62500
1$
16
#63000
0$
06
b1000000 k
#63500
1$
16
#64000
0$
06
b1000001 k
#64500
1$
16
#65000
0$
06
b1000010 k
#65500
1$
16
#66000
0$
06
b1000011 k
#66500
1$
16
#67000
0$
06
b1000100 k
#67500
1$
16
#68000
0$
06
b1000101 k
#68500
1$
16
#69000
0$
06
b1000110 k
#69500
1$
16
#70000
0$
06
b1000111 k
#70500
1$
16
#71000
0$
06
b1001000 k
#71500
1$
16
#72000
0$
06
b1001001 k
#72500
1$
16
#73000
0$
06
b1001010 k
#73500
1$
16
#74000
0$
06
b1001011 k
#74500
1$
16
#75000
0$
06
b1001100 k
#75500
1$
16
#76000
0$
06
b1001101 k
#76500
1$
16
#77000
0$
06
b1001110 k
#77500
1$
16
#78000
0$
06
b1001111 k
#78500
1$
16
#79000
0$
06
b1010000 k
#79500
1$
16
#80000
0$
06
b1010001 k
#80500
1$
16
#81000
0$
06
b1010010 k
#81500
1$
16
#82000
0$
06
b1010011 k
#82500
1$
16
#83000
0$
06
b1010100 k
#83500
1$
16
#84000
0$
06
b1010101 k
#84500
1$
16
#85000
0$
06
b1010110 k
#85500
1$
16
#86000
0$
06
b1010111 k
#86500
1$
16
#87000
0$
06
b1011000 k
#87500
1$
16
#88000
0$
06
b1011001 k
#88500
1$
16
#89000
0$
06
b1011010 k
#89500
1$
16
#90000
0$
06
b1011011 k
#90500
1$
16
#91000
0$
06
b1011100 k
#91500
1$
16
#92000
0$
06
b1011101 k
#92500
1$
16
#93000
0$
06
b1011110 k
#93500
1$
16
#94000
0$
06
b1011111 k
#94500
1$
16
#95000
0$
06
b1100000 k
#95500
1$
16
#96000
0$
06
b1100001 k
#96500
1$
16
#97000
0$
06
b1100010 k
#97500
1$
16
#98000
0$
06
b1100011 k
#98500
1$
16
#99000
0$
06
b1100100 k
#99500
1$
16
#100000
0$
06
b1100101 k
#100500
1$
16
#101000
0$
06
b1100110 k
#101500
1$
16
#102000
0$
06
b1100111 k
#102500
1$
16
#103000
0$
06
b1101000 k
#103500
1$
16
#104000
0$
06
b1101001 k
#104500
1$
16
#105000
0$
06
b1101010 k
#105500
1$
16
#106000
0$
06
b1101011 k
#106500
1$
16
#107000
0$
06
b1101100 k
#107500
1$
16
#108000
0$
06
b1101101 k
#108500
1$
16
#109000
0$
06
b1101110 k
#109500
1$
16
#110000
0$
06
b1101111 k
#110500
1$
16
#111000
0$
06
b1110000 k
#111500
1$
16
#112000
0$
06
b1110001 k
#112500
1$
16
#113000
0$
06
b1110010 k
#113500
1$
16
#114000
0$
06
b1110011 k
#114500
1$
16
#115000
0$
06
b1110100 k
#115500
1$
16
#116000
0$
06
b1110101 k
#116500
1$
16
#117000
0$
06
b1110110 k
#117500
1$
16
#118000
0$
06
b1110111 k
#118500
1$
16
#119000
0$
06
b1111000 k
#119500
1$
16
#120000
0$
06
b1111001 k
#120500
1$
16
#121000
0$
06
b1111010 k
#121500
1$
16
#122000
0$
06
b1111011 k
#122500
1$
16
#123000
0$
06
b1111100 k
#123500
1$
16
#124000
0$
06
b1111101 k
#124500
1$
16
#125000
0$
06
b1111110 k
#125500
1$
16
#126000
0$
06
b1111111 k
#126500
1$
16
#127000
0$
06
b10000000 k
#127500
1$
16
#128000
0$
06
b10000001 k
#128500
1$
16
#129000
0$
06
b10000010 k
#129500
1$
16
#130000
0$
06
b10000011 k
#130500
1$
16
#131000
0$
06
b10000100 k
#131500
1$
16
#132000
0$
06
b10000101 k
#132500
1$
16
#133000
0$
06
b10000110 k
#133500
1$
16
#134000
0$
06
b10000111 k
#134500
1$
16
#135000
0$
06
b10001000 k
#135500
1$
16
#136000
0$
06
b10001001 k
#136500
1$
16
#137000
0$
06
b10001010 k
#137500
1$
16
#138000
0$
06
b10001011 k
#138500
1$
16
#139000
0$
06
b10001100 k
#139500
1$
16
#140000
0$
06
b10001101 k
#140500
1$
16
#141000
0$
06
b10001110 k
#141500
1$
16
#142000
0$
06
b10001111 k
#142500
1$
16
#143000
0$
06
b10010000 k
#143500
1$
16
#144000
0$
06
b10010001 k
#144500
1$
16
#145000
0$
06
b10010010 k
#145500
1$
16
#146000
0$
06
b10010011 k
#146500
1$
16
#147000
0$
06
b10010100 k
#147500
1$
16
#148000
0$
06
b10010101 k
#148500
1$
16
#149000
0$
06
b10010110 k
#149500
1$
16
#150000
0$
06
b10010111 k
#150500
1$
16
#151000
0$
06
b10011000 k
#151500
1$
16
#152000
0$
06
b10011001 k
#152500
1$
16
#153000
0$
06
b10011010 k
#153500
1$
16
#154000
0$
06
b10011011 k
#154500
1$
16
#155000
0$
06
b10011100 k
#155500
1$
16
#156000
0$
06
b10011101 k
#156500
1$
16
#157000
0$
06
b10011110 k
#157500
1$
16
#158000
0$
06
b10011111 k
#158500
1$
16
#159000
0$
06
b10100000 k
#159500
1$
16
#160000
0$
06
b10100001 k
#160500
1$
16
#161000
0$
06
b10100010 k
#161500
1$
16
#162000
0$
06
b10100011 k
#162500
1$
16
#163000
0$
06
b10100100 k
#163500
1$
16
#164000
0$
06
b10100101 k
#164500
1$
16
#165000
0$
06
b10100110 k
#165500
1$
16
#166000
0$
06
b10100111 k
#166500
1$
16
#167000
0$
06
b10101000 k
#167500
1$
16
#168000
0$
06
b10101001 k
#168500
1$
16
#169000
0$
06
b10101010 k
#169500
1$
16
#170000
0$
06
b10101011 k
#170500
1$
16
#171000
0$
06
b10101100 k
#171500
1$
16
#172000
0$
06
b10101101 k
#172500
1$
16
#173000
0$
06
b10101110 k
#173500
1$
16
#174000
0$
06
b10101111 k
#174500
1$
16
#175000
0$
06
b10110000 k
#175500
1$
16
#176000
0$
06
b10110001 k
#176500
1$
16
#177000
0$
06
b10110010 k
#177500
1$
16
#178000
0$
06
b10110011 k
#178500
1$
16
#179000
0$
06
b10110100 k
#179500
1$
16
#180000
0$
06
b10110101 k
#180500
1$
16
#181000
0$
06
b10110110 k
#181500
1$
16
#182000
0$
06
b10110111 k
#182500
1$
16
#183000
0$
06
b10111000 k
#183500
1$
16
#184000
0$
06
b10111001 k
#184500
1$
16
#185000
0$
06
b10111010 k
#185500
1$
16
#186000
0$
06
b10111011 k
#186500
1$
16
#187000
0$
06
b10111100 k
#187500
1$
16
#188000
0$
06
b10111101 k
#188500
1$
16
#189000
0$
06
b10111110 k
#189500
1$
16
#190000
0$
06
b10111111 k
#190500
1$
16
#191000
0$
06
b11000000 k
#191500
1$
16
#192000
0$
06
b11000001 k
#192500
1$
16
#193000
0$
06
b11000010 k
#193500
1$
16
#194000
0$
06
b11000011 k
#194500
1$
16
#195000
0$
06
b11000100 k
#195500
1$
16
#196000
0$
06
b11000101 k
#196500
1$
16
#197000
0$
06
b11000110 k
#197500
1$
16
#198000
0$
06
b11000111 k
#198500
1$
16
#199000
0$
06
b11001000 k
#199500
1$
16
#200000
0$
06
b11001001 k
#200500
1$
16
#201000
0$
06
b11001010 k
#201500
1$
16
#202000
0$
06
b11001011 k
#202500
1$
16
#203000
0$
06
b11001100 k
#203500
1$
16
#204000
0$
06
b11001101 k
#204500
1$
16
#205000
0$
06
b11001110 k
#205500
1$
16
#206000
0$
06
b11001111 k
#206500
1$
16
#207000
0$
06
b11010000 k
#207500
1$
16
#208000
0$
06
b11010001 k
#208500
1$
16
#209000
0$
06
b11010010 k
#209500
1$
16
#210000
0$
06
b11010011 k
#210500
1$
16
#211000
0$
06
b11010100 k
#211500
1$
16
#212000
0$
06
b11010101 k
#212500
1$
16
#213000
0$
06
b11010110 k
#213500
1$
16
#214000
0$
06
b11010111 k
#214500
1$
16
#215000
0$
06
b11011000 k
#215500
1$
16
#216000
0$
06
b11011001 k
#216500
1$
16
#217000
0$
06
b11011010 k
#217500
1$
16
#218000
0$
06
b11011011 k
#218500
1$
16
#219000
0$
06
b11011100 k
#219500
1$
16
#220000
0$
06
b11011101 k
#220500
1$
16
#221000
0$
06
b11011110 k
#221500
1$
16
#222000
0$
06
b11011111 k
#222500
1$
16
#223000
0$
06
b11100000 k
#223500
1$
16
#224000
0$
06
b11100001 k
#224500
1$
16
#225000
0$
06
b11100010 k
#225500
1$
16
#226000
0$
06
b11100011 k
#226500
1$
16
#227000
0$
06
b11100100 k
#227500
1$
16
#228000
0$
06
b11100101 k
#228500
1$
16
#229000
0$
06
b11100110 k
#229500
1$
16
#230000
0$
06
b11100111 k
#230500
1$
16
#231000
0$
06
b11101000 k
#231500
1$
16
#232000
0$
06
b11101001 k
#232500
1$
16
#233000
0$
06
b11101010 k
#233500
1$
16
#234000
0$
06
b11101011 k
#234500
1$
16
#235000
0$
06
b11101100 k
#235500
1$
16
#236000
0$
06
b11101101 k
#236500
1$
16
#237000
0$
06
b11101110 k
#237500
1$
16
#238000
0$
06
b11101111 k
#238500
1$
16
#239000
0$
06
b11110000 k
#239500
1$
16
#240000
0$
06
b11110001 k
#240500
1$
16
#241000
0$
06
b11110010 k
#241500
1$
16
#242000
0$
06
b11110011 k
#242500
1$
16
#243000
0$
06
b11110100 k
#243500
1$
16
#244000
0$
06
b11110101 k
#244500
1$
16
#245000
0$
06
b11110110 k
#245500
1$
16
#246000
0$
06
b11110111 k
#246500
1$
16
#247000
0$
06
b11111000 k
#247500
1$
16
#248000
0$
06
b11111001 k
#248500
1$
16
#249000
0$
06
b11111010 k
#249500
1$
16
#250000
0$
06
b11111011 k
#250500
1$
16
#251000
0$
06
b11111100 k
#251500
1$
16
#252000
0$
06
b11111101 k
#252500
1$
16
#253000
0$
06
b11111110 k
#253500
1$
16
#254000
0$
06
b11111111 k
#254500
1$
16
#255000
0$
06
b100000000 k
#255500
1$
16
#256000
0$
06
b100000001 k
#256500
1$
16
#257000
0$
06
b100000010 k
#257500
1$
16
#258000
0$
06
b100000011 k
#258500
1$
16
#259000
0$
06
b100000100 k
#259500
1$
16
#260000
0$
06
b100000101 k
#260500
1$
16
#261000
0$
06
b100000110 k
#261500
1$
16
#262000
0$
06
b100000111 k
#262500
1$
16
#263000
0$
06
b100001000 k
#263500
1$
16
#264000
0$
06
b100001001 k
#264500
1$
16
#265000
0$
06
b100001010 k
#265500
1$
16
#266000
0$
06
b100001011 k
#266500
1$
16
#267000
0$
06
b100001100 k
#267500
1$
16
#268000
0$
06
b100001101 k
#268500
1$
16
#269000
0$
06
b100001110 k
#269500
1$
16
#270000
0$
06
b100001111 k
#270500
1$
16
#271000
0$
06
b100010000 k
#271500
1$
16
#272000
0$
06
b100010001 k
#272500
1$
16
#273000
0$
06
b100010010 k
#273500
1$
16
#274000
0$
06
b100010011 k
#274500
1$
16
#275000
0$
06
b100010100 k
#275500
1$
16
#276000
0$
06
b100010101 k
#276500
1$
16
#277000
0$
06
b100010110 k
#277500
1$
16
#278000
0$
06
b100010111 k
#278500
1$
16
#279000
0$
06
b100011000 k
#279500
1$
16
#280000
0$
06
b100011001 k
#280500
1$
16
#281000
0$
06
b100011010 k
#281500
1$
16
#282000
0$
06
b100011011 k
#282500
1$
16
#283000
0$
06
b100011100 k
#283500
1$
16
#284000
0$
06
b100011101 k
#284500
1$
16
#285000
0$
06
b100011110 k
#285500
1$
16
#286000
0$
06
b100011111 k
#286500
1$
16
#287000
0$
06
b100100000 k
#287500
1$
16
#288000
0$
06
b100100001 k
#288500
1$
16
#289000
0$
06
b100100010 k
#289500
1$
16
#290000
0$
06
b100100011 k
#290500
1$
16
#291000
0$
06
b100100100 k
#291500
1$
16
#292000
0$
06
b100100101 k
#292500
1$
16
#293000
0$
06
b100100110 k
#293500
1$
16
#294000
0$
06
b100100111 k
#294500
1$
16
#295000
0$
06
b100101000 k
#295500
1$
16
#296000
0$
06
b100101001 k
#296500
1$
16
#297000
0$
06
b100101010 k
#297500
1$
16
#298000
0$
06
b100101011 k
#298500
1$
16
#299000
0$
06
b100101100 k
#299500
1$
16
#300000
0$
06
b100101101 k
#300500
1$
16
#301000
0$
06
b100101110 k
#301500
1$
16
#302000
0$
06
b100101111 k
#302500
1$
16
#303000
0$
06
b100110000 k
#303500
1$
16
#304000
0$
06
b100110001 k
#304500
1$
16
#305000
0$
06
b100110010 k
#305500
1$
16
#306000
0$
06
b100110011 k
#306500
1$
16
#307000
0$
06
b100110100 k
#307500
1$
16
#308000
0$
06
b100110101 k
#308500
1$
16
#309000
0$
06
b100110110 k
#309500
1$
16
#310000
0$
06
b100110111 k
#310500
1$
16
#311000
0$
06
b100111000 k
#311500
1$
16
#312000
0$
06
b100111001 k
#312500
1$
16
#313000
0$
06
b100111010 k
#313500
1$
16
#314000
0$
06
b100111011 k
#314500
1$
16
#315000
0$
06
b100111100 k
#315500
1$
16
#316000
0$
06
b100111101 k
#316500
1$
16
#317000
0$
06
b100111110 k
#317500
1$
16
#318000
0$
06
b100111111 k
#318500
1$
16
#319000
0$
06
b101000000 k
#319500
1$
16
#320000
0$
06
b101000001 k
#320500
1$
16
#321000
0$
06
b101000010 k
#321500
1$
16
#322000
0$
06
b101000011 k
#322500
1$
16
#323000
0$
06
b101000100 k
#323500
1$
16
#324000
0$
06
b101000101 k
#324500
1$
16
#325000
0$
06
b101000110 k
#325500
1$
16
#326000
0$
06
b101000111 k
#326500
1$
16
#327000
0$
06
b101001000 k
#327500
1$
16
#328000
0$
06
b101001001 k
#328500
1$
16
#329000
0$
06
b101001010 k
#329500
1$
16
#330000
0$
06
b101001011 k
#330500
1$
16
#331000
0$
06
b101001100 k
#331500
1$
16
#332000
0$
06
b101001101 k
#332500
1$
16
#333000
0$
06
b101001110 k
#333500
1$
16
#334000
0$
06
b101001111 k
#334500
1$
16
#335000
0$
06
b101010000 k
#335500
1$
16
#336000
0$
06
b101010001 k
#336500
1$
16
#337000
0$
06
b101010010 k
#337500
1$
16
#338000
0$
06
b101010011 k
#338500
1$
16
#339000
0$
06
b101010100 k
#339500
1$
16
#340000
0$
06
b101010101 k
#340500
1$
16
#341000
0$
06
b101010110 k
#341500
1$
16
#342000
0$
06
b101010111 k
#342500
1$
16
#343000
0$
06
b101011000 k
#343500
1$
16
#344000
0$
06
b101011001 k
#344500
1$
16
#345000
0$
06
b101011010 k
#345500
1$
16
#346000
0$
06
b101011011 k
#346500
1$
16
#347000
0$
06
b101011100 k
#347500
1$
16
#348000
0$
06
b101011101 k
#348500
1$
16
#349000
0$
06
b101011110 k
#349500
1$
16
#350000
0$
06
b101011111 k
#350500
1$
16
#351000
0$
06
b101100000 k
#351500
1$
16
#352000
0$
06
b101100001 k
#352500
1$
16
#353000
0$
06
b101100010 k
#353500
1$
16
#354000
0$
06
b101100011 k
#354500
1$
16
#355000
0$
06
b101100100 k
#355500
1$
16
#356000
0$
06
b101100101 k
#356500
1$
16
#357000
0$
06
b101100110 k
#357500
1$
16
#358000
0$
06
b101100111 k
#358500
1$
16
#359000
0$
06
b101101000 k
#359500
1$
16
#360000
0$
06
b101101001 k
#360500
1$
16
#361000
0$
06
b101101010 k
#361500
1$
16
#362000
0$
06
b101101011 k
#362500
1$
16
#363000
0$
06
b101101100 k
#363500
1$
16
#364000
0$
06
b101101101 k
#364500
1$
16
#365000
0$
06
b101101110 k
#365500
1$
16
#366000
0$
06
b101101111 k
#366500
1$
16
#367000
0$
06
b101110000 k
#367500
1$
16
#368000
0$
06
b101110001 k
#368500
1$
16
#369000
0$
06
b101110010 k
#369500
1$
16
#370000
0$
06
b101110011 k
#370500
1$
16
#371000
0$
06
b101110100 k
#371500
1$
16
#372000
0$
06
b101110101 k
#372500
1$
16
#373000
0$
06
b101110110 k
#373500
1$
16
#374000
0$
06
b101110111 k
#374500
1$
16
#375000
0$
06
b101111000 k
#375500
1$
16
#376000
0$
06
b101111001 k
#376500
1$
16
#377000
0$
06
b101111010 k
#377500
1$
16
#378000
0$
06
b101111011 k
#378500
1$
16
#379000
0$
06
b101111100 k
#379500
1$
16
#380000
0$
06
b101111101 k
#380500
1$
16
#381000
0$
06
b101111110 k
#381500
1$
16
#382000
0$
06
b101111111 k
#382500
1$
16
#383000
0$
06
b110000000 k
#383500
1$
16
#384000
0$
06
b110000001 k
#384500
1$
16
#385000
0$
06
b110000010 k
#385500
1$
16
#386000
0$
06
b110000011 k
#386500
1$
16
#387000
0$
06
b110000100 k
#387500
1$
16
#388000
0$
06
b110000101 k
#388500
1$
16
#389000
0$
06
b110000110 k
#389500
1$
16
#390000
0$
06
b110000111 k
#390500
1$
16
#391000
0$
06
b110001000 k
#391500
1$
16
#392000
0$
06
b110001001 k
#392500
1$
16
#393000
0$
06
b110001010 k
#393500
1$
16
#394000
0$
06
b110001011 k
#394500
1$
16
#395000
0$
06
b110001100 k
#395500
1$
16
#396000
0$
06
b110001101 k
#396500
1$
16
#397000
0$
06
b110001110 k
#397500
1$
16
#398000
0$
06
b110001111 k
#398500
1$
16
#399000
0$
06
b110010000 k
#399500
1$
16
#400000
0$
06
b110010001 k
#400500
1$
16
#401000
0$
06
b110010010 k
#401500
1$
16
#402000
0$
06
b110010011 k
#402500
1$
16
#403000
0$
06
b110010100 k
#403500
1$
16
#404000
0$
06
b110010101 k
#404500
1$
16
#405000
0$
06
b110010110 k
#405500
1$
16
#406000
0$
06
b110010111 k
#406500
1$
16
#407000
0$
06
b110011000 k
#407500
1$
16
#408000
0$
06
b110011001 k
#408500
1$
16
#409000
0$
06
b110011010 k
#409500
1$
16
#410000
0$
06
b110011011 k
#410500
1$
16
#411000
0$
06
b110011100 k
#411500
1$
16
#412000
0$
06
b110011101 k
#412500
1$
16
#413000
0$
06
b110011110 k
#413500
1$
16
#414000
0$
06
b110011111 k
#414500
1$
16
#415000
0$
06
b110100000 k
#415500
1$
16
#416000
0$
06
b110100001 k
#416500
1$
16
#417000
0$
06
b110100010 k
#417500
1$
16
#418000
0$
06
b110100011 k
#418500
1$
16
#419000
0$
06
b110100100 k
#419500
1$
16
#420000
0$
06
b110100101 k
#420500
1$
16
#421000
0$
06
b110100110 k
#421500
1$
16
#422000
0$
06
b110100111 k
#422500
1$
16
#423000
0$
06
b110101000 k
#423500
1$
16
#424000
0$
06
b110101001 k
#424500
1$
16
#425000
0$
06
b110101010 k
#425500
1$
16
#426000
0$
06
b110101011 k
#426500
1$
16
#427000
0$
06
b110101100 k
#427500
1$
16
#428000
0$
06
b110101101 k
#428500
1$
16
#429000
0$
06
b110101110 k
#429500
1$
16
#430000
0$
06
b110101111 k
#430500
1$
16
#431000
0$
06
b110110000 k
#431500
1$
16
#432000
0$
06
b110110001 k
#432500
1$
16
#433000
0$
06
b110110010 k
#433500
1$
16
#434000
0$
06
b110110011 k
#434500
1$
16
#435000
0$
06
b110110100 k
#435500
1$
16
#436000
0$
06
b110110101 k
#436500
1$
16
#437000
0$
06
b110110110 k
#437500
1$
16
#438000
0$
06
b110110111 k
#438500
1$
16
#439000
0$
06
b110111000 k
#439500
1$
16
#440000
0$
06
b110111001 k
#440500
1$
16
#441000
0$
06
b110111010 k
#441500
1$
16
#442000
0$
06
b110111011 k
#442500
1$
16
#443000
0$
06
b110111100 k
#443500
1$
16
#444000
0$
06
b110111101 k
#444500
1$
16
#445000
0$
06
b110111110 k
#445500
1$
16
#446000
0$
06
b110111111 k
#446500
1$
16
#447000
0$
06
b111000000 k
#447500
1$
16
#448000
0$
06
b111000001 k
#448500
1$
16
#449000
0$
06
b111000010 k
#449500
1$
16
#450000
0$
06
b111000011 k
#450500
1$
16
#451000
0$
06
b111000100 k
#451500
1$
16
#452000
0$
06
b111000101 k
#452500
1$
16
#453000
0$
06
b111000110 k
#453500
1$
16
#454000
0$
06
b111000111 k
#454500
1$
16
#455000
0$
06
b111001000 k
#455500
1$
16
#456000
0$
06
b111001001 k
#456500
1$
16
#457000
0$
06
b111001010 k
#457500
1$
16
#458000
0$
06
b111001011 k
#458500
1$
16
#459000
0$
06
b111001100 k
#459500
1$
16
#460000
0$
06
b111001101 k
#460500
1$
16
#461000
0$
06
b111001110 k
#461500
1$
16
#462000
0$
06
b111001111 k
#462500
1$
16
#463000
0$
06
b111010000 k
#463500
1$
16
#464000
0$
06
b111010001 k
#464500
1$
16
#465000
0$
06
b111010010 k
#465500
1$
16
#466000
0$
06
b111010011 k
#466500
1$
16
#467000
0$
06
b111010100 k
#467500
1$
16
#468000
0$
06
b111010101 k
#468500
1$
16
#469000
0$
06
b111010110 k
#469500
1$
16
#470000
0$
06
b111010111 k
#470500
1$
16
#471000
0$
06
b111011000 k
#471500
1$
16
#472000
0$
06
b111011001 k
#472500
1$
16
#473000
0$
06
b111011010 k
#473500
1$
16
#474000
0$
06
b111011011 k
#474500
1$
16
#475000
0$
06
b111011100 k
#475500
1$
16
#476000
0$
06
b111011101 k
#476500
1$
16
#477000
0$
06
b111011110 k
#477500
1$
16
#478000
0$
06
b111011111 k
#478500
1$
16
#479000
0$
06
b111100000 k
#479500
1$
16
#480000
0$
06
b111100001 k
#480500
1$
16
#481000
0$
06
b111100010 k
#481500
1$
16
#482000
0$
06
b111100011 k
#482500
1$
16
#483000
0$
06
b111100100 k
#483500
1$
16
#484000
0$
06
b111100101 k
#484500
1$
16
