lib/smtdv_common/test/sim/test_xbus.vcd
$date
    Aug 12, 2015  11:28:53
$end
$version
    TOOL:	ncsim(64)	13.10-s011
$end
$timescale
    10 ps
$end

$scope module top $end
$var parameter 32 !    ADDR_WIDTH  $end
$var parameter 32 "    BYTEN_WIDTH  $end
$var parameter 32 #    DATA_WIDTH  $end
$var reg       1 $    clk  $end
$var reg       1 %    resetn  $end

$scope module xbus_rst_if $end
$var reg       1 &    rst  $end
$var parameter 88 '    if_name  $end
$var parameter 64 (    PWRST_PERIOD [63:0] $end
$var parameter  1 )    POLARITY  $end
$var time     64 *    deassert_period_before_pwrst  $end

$scope begin unmblk1 $end
$var time     64 +    rand_period  $end
$upscope $end

$upscope $end


$scope module xbus_if_0 $end
$var parameter 32 ,    ADDR_WIDTH  $end
$var parameter 32 -    BYTEN_WIDTH  $end
$var parameter 32 .    DATA_WIDTH  $end
$var wire      1 /    clk  $end
$var wire      1 0    resetn  $end
$var reg       1 1    req [0:0] $end
$var reg       1 2    rw [0:0] $end
$var reg      32 3    addr [31:0] $end
$var reg       1 4    ack [0:0] $end
$var reg       4 5    byten [3:0] $end
$var reg      32 6    rdata [31:0] $end
$var reg      32 7    wdata [31:0] $end
$var reg       1 8    has_checks  $end
$var reg       1 9    has_coverage  $end
$var reg       1 :    has_performance  $end
$var reg       1 ;    has_force  $end
$var reg      64 <    cyc [63:0] $end

$scope clocking slave $end
$var reg       1 =    clk  $end
$var reg       1 >    resetn  $end
$var reg       1 ?    req [0] $end
$var reg       1 @    rw [0] $end
$var reg      32 A    addr [31:0] $end
$var reg       1 B    ack [0] $end
$var reg       4 C    byten [3:0] $end
$var reg      32 D    wdata [31:0] $end
$var reg      32 E    rdata [31:0] $end
$upscope $end


$scope clocking master $end
$var reg       1 F    clk  $end
$var reg       1 G    resetn  $end
$var reg       1 H    req [0] $end
$var reg       1 I    rw [0] $end
$var reg      32 J    addr [31:0] $end
$var reg       1 K    ack [0] $end
$var reg       4 L    byten [3:0] $end
$var reg      32 M    wdata [31:0] $end
$var reg      32 N    rdata [31:0] $end
$upscope $end

$upscope $end

$upscope $end

$enddefinitions $end
$dumpvars
b100000 .
b100 -
b100000 ,
0)
b1001110001000 (
b1000000000000000000000000000000001100000000000000000000000010001100 '
b100000 #
b100 "
b100000 !
0$
1%
1&
b1111101000 *
b100011 +
0/
10
x1
x2
bx 3
x4
bx 5
bx 6
bx 7
18
19
1:
0;
b1 <
x=
x>
x?
x@
bx A
xB
bx C
bx D
bx E
xF
xG
xH
xI
bx J
xK
bx L
bx M
bx N
$end
#500
1$
1/
0F
1G
0=
1>
#600
01
0H
02
0I
b0 3
b0 J
b0 5
b0 L
b0 7
b0 M
04
0B
b0 6
b0 E
#1000
0$
0/
b10 <
#1500
1$
1/
0K
b0 N
0?
0@
b0 A
b0 C
b0 D
#2000
0$
0/
b11 <
#2500
1$
1/
#3000
0$
0/
b100 <
#3500
0&
1$
1/
0%
00
#4000
0$
0/
b101 <
#4500
1$
1/
0G
0>
#5000
0$
0/
b110 <
#5500
1$
1/
#6000
0$
0/
b111 <
#6500
1$
1/
#7000
0$
0/
b1000 <
#7500
1$
1/
#8000
0$
0/
b1001 <
#8500
1$
1/
#9000
0$
0/
b1010 <
#9500
1$
1/
#10000
0$
0/
b1011 <
#10500
1$
1/
#11000
0$
0/
b1100 <
#11500
1$
1/
#12000
0$
0/
b1101 <
#12500
1$
1/
#13000
0$
0/
b1110 <
#13500
1$
1/
#14000
0$
0/
b1111 <
#14500
1$
1/
#15000
0$
0/
b10000 <
#15500
1$
1/
#16000
0$
0/
b10001 <
#16500
1$
1/
#17000
0$
0/
b10010 <
#17500
1$
1/
#18000
0$
0/
b10011 <
#18500
1$
1/
#19000
0$
0/
b10100 <
#19500
1$
1/
#20000
0$
0/
b10101 <
#20500
1$
1/
#21000
0$
0/
b10110 <
#21500
1$
1/
#22000
0$
0/
b10111 <
#22500
1$
1/
#23000
0$
0/
b11000 <
#23500
1$
1/
#24000
0$
0/
b11001 <
#24500
1$
1/
#25000
0$
0/
b11010 <
#25500
1$
1/
#26000
0$
0/
b11011 <
#26500
1$
1/
#27000
0$
0/
b11100 <
#27500
1$
1/
#28000
0$
0/
b11101 <
#28500
1$
1/
#29000
0$
0/
b11110 <
#29500
1$
1/
#30000
0$
0/
b11111 <
#30500
1$
1/
#31000
0$
0/
b100000 <
#31500
1$
1/
#32000
0$
0/
b100001 <
#32500
1$
1/
#33000
0$
0/
b100010 <
#33500
1$
1/
#34000
0$
0/
b100011 <
#34500
1$
1/
#35000
0$
0/
b100100 <
#35500
1$
1/
#36000
0$
0/
b100101 <
#36500
1$
1/
#37000
0$
0/
b100110 <
#37500
1$
1/
#38000
0$
0/
b100111 <
#38500
1$
1/
#39000
0$
0/
b101000 <
#39500
1$
1/
#40000
0$
0/
b101001 <
#40500
1$
1/
#41000
0$
0/
b101010 <
#41500
1$
1/
#42000
0$
0/
b101011 <
#42500
1$
1/
#43000
0$
0/
b101100 <
#43500
1$
1/
#44000
0$
0/
b101101 <
#44500
1$
1/
#45000
0$
0/
b101110 <
#45500
1$
1/
#46000
0$
0/
b101111 <
#46500
1$
1/
#47000
0$
0/
b110000 <
#47500
1$
1/
#48000
0$
0/
b110001 <
#48500
1$
1/
#49000
0$
0/
b110010 <
#49500
1$
1/
#50000
0$
0/
b110011 <
#50500
1$
1/
#51000
0$
0/
b110100 <
#51500
1$
1/
#52000
0$
0/
b110101 <
#52500
1$
1/
#53000
0$
0/
b110110 <
#53500
1$
1/
#54000
0$
0/
b110111 <
#54500
1$
1/
#55000
0$
0/
b111000 <
#55500
1$
1/
#56000
0$
0/
b111001 <
#56500
1$
1/
#57000
0$
0/
b111010 <
#57500
1$
1/
#58000
0$
0/
b111011 <
#58500
1$
1/
#59000
0$
0/
b111100 <
#59500
1$
1/
#60000
0$
0/
b111101 <
#60500
1$
1/
#61000
0$
0/
b111110 <
#61500
1$
1/
#62000
0$
0/
b111111 <
#62500
1$
1/
#63000
0$
0/
b1000000 <
#63500
1$
1/
#64000
0$
0/
b1000001 <
#64500
1$
1/
#65000
0$
0/
b1000010 <
#65500
1$
1/
#66000
0$
0/
b1000011 <
#66500
1$
1/
#67000
0$
0/
b1000100 <
#67500
1$
1/
#68000
0$
0/
b1000101 <
#68500
1$
1/
#69000
0$
0/
b1000110 <
#69500
1$
1/
#70000
0$
0/
b1000111 <
#70500
1$
1/
#71000
0$
0/
b1001000 <
#71500
1$
1/
#72000
0$
0/
b1001001 <
#72500
1$
1/
#73000
0$
0/
b1001010 <
#73500
1$
1/
#74000
0$
0/
b1001011 <
#74500
1$
1/
#75000
0$
0/
b1001100 <
#75500
1$
1/
#76000
0$
0/
b1001101 <
#76500
1$
1/
#77000
0$
0/
b1001110 <
#77500
1$
1/
#78000
0$
0/
b1001111 <
#78500
1$
1/
#79000
0$
0/
b1010000 <
#79500
1$
1/
#80000
0$
0/
b1010001 <
#80500
1$
1/
#81000
0$
0/
b1010010 <
#81500
1$
1/
#82000
0$
0/
b1010011 <
#82500
1$
1/
#83000
0$
0/
b1010100 <
#83500
1$
1/
#84000
0$
0/
b1010101 <
#84500
1$
1/
#85000
0$
0/
b1010110 <
#85500
1$
1/
#86000
0$
0/
b1010111 <
#86500
1$
1/
#87000
0$
0/
b1011000 <
#87500
1$
1/
#88000
0$
0/
b1011001 <
#88500
1$
1/
#89000
0$
0/
b1011010 <
#89500
1$
1/
#90000
0$
0/
b1011011 <
#90500
1$
1/
#91000
0$
0/
b1011100 <
#91500
1$
1/
#92000
0$
0/
b1011101 <
#92500
1$
1/
#93000
0$
0/
b1011110 <
#93500
1$
1/
#94000
0$
0/
b1011111 <
#94500
1$
1/
#95000
0$
0/
b1100000 <
#95500
1$
1/
#96000
0$
0/
b1100001 <
#96500
1$
1/
#97000
0$
0/
b1100010 <
#97500
1$
1/
#98000
0$
0/
b1100011 <
#98500
1$
1/
#99000
0$
0/
b1100100 <
#99500
1$
1/
#100000
0$
0/
b1100101 <
#100500
1$
1/
#101000
0$
0/
b1100110 <
#101500
1$
1/
#102000
0$
0/
b1100111 <
#102500
1$
1/
#103000
0$
0/
b1101000 <
#103500
1$
1/
#104000
0$
0/
b1101001 <
#104500
1$
1/
#105000
0$
0/
b1101010 <
#105500
1$
1/
#106000
0$
0/
b1101011 <
#106500
1$
1/
#107000
0$
0/
b1101100 <
#107500
1$
1/
#108000
0$
0/
b1101101 <
#108500
1$
1/
#109000
0$
0/
b1101110 <
#109500
1$
1/
#110000
0$
0/
b1101111 <
#110500
1$
1/
#111000
0$
0/
b1110000 <
#111500
1$
1/
#112000
0$
0/
b1110001 <
#112500
1$
1/
#113000
0$
0/
b1110010 <
#113500
1$
1/
#114000
0$
0/
b1110011 <
#114500
1$
1/
#115000
0$
0/
b1110100 <
#115500
1$
1/
#116000
0$
0/
b1110101 <
#116500
1$
1/
#117000
0$
0/
b1110110 <
#117500
1$
1/
#118000
0$
0/
b1110111 <
#118500
1$
1/
#119000
0$
0/
b1111000 <
#119500
1$
1/
#120000
0$
0/
b1111001 <
#120500
1$
1/
#121000
0$
0/
b1111010 <
#121500
1$
1/
#122000
0$
0/
b1111011 <
#122500
1$
1/
#123000
0$
0/
b1111100 <
#123500
1$
1/
#124000
0$
0/
b1111101 <
#124500
1$
1/
#125000
0$
0/
b1111110 <
#125500
1$
1/
#126000
0$
0/
b1111111 <
#126500
1$
1/
#127000
0$
0/
b10000000 <
#127500
1$
1/
#128000
0$
0/
b10000001 <
#128500
1$
1/
#129000
0$
0/
b10000010 <
#129500
1$
1/
#130000
0$
0/
b10000011 <
#130500
1$
1/
#131000
0$
0/
b10000100 <
#131500
1$
1/
#132000
0$
0/
b10000101 <
#132500
1$
1/
#133000
0$
0/
b10000110 <
#133500
1$
1/
#134000
0$
0/
b10000111 <
#134500
1$
1/
#135000
0$
0/
b10001000 <
#135500
1$
1/
#136000
0$
0/
b10001001 <
#136500
1$
1/
#137000
0$
0/
b10001010 <
#137500
1$
1/
#138000
0$
0/
b10001011 <
#138500
1$
1/
#139000
0$
0/
b10001100 <
#139500
1$
1/
#140000
0$
0/
b10001101 <
#140500
1$
1/
#141000
0$
0/
b10001110 <
#141500
1$
1/
#142000
0$
0/
b10001111 <
#142500
1$
1/
#143000
0$
0/
b10010000 <
#143500
1$
1/
#144000
0$
0/
b10010001 <
#144500
1$
1/
#145000
0$
0/
b10010010 <
#145500
1$
1/
#146000
0$
0/
b10010011 <
#146500
1$
1/
#147000
0$
0/
b10010100 <
#147500
1$
1/
#148000
0$
0/
b10010101 <
#148500
1$
1/
#149000
0$
0/
b10010110 <
#149500
1$
1/
#150000
0$
0/
b10010111 <
#150500
1$
1/
#151000
0$
0/
b10011000 <
#151500
1$
1/
#152000
0$
0/
b10011001 <
#152500
1$
1/
#153000
0$
0/
b10011010 <
#153500
1$
1/
#154000
0$
0/
b10011011 <
#154500
1$
1/
#155000
0$
0/
b10011100 <
#155500
1$
1/
#156000
0$
0/
b10011101 <
#156500
1$
1/
#157000
0$
0/
b10011110 <
#157500
1$
1/
#158000
0$
0/
b10011111 <
#158500
1$
1/
#159000
0$
0/
b10100000 <
#159500
1$
1/
#160000
0$
0/
b10100001 <
#160500
1$
1/
#161000
0$
0/
b10100010 <
#161500
1$
1/
#162000
0$
0/
b10100011 <
#162500
1$
1/
#163000
0$
0/
b10100100 <
#163500
1$
1/
#164000
0$
0/
b10100101 <
#164500
1$
1/
#165000
0$
0/
b10100110 <
#165500
1$
1/
#166000
0$
0/
b10100111 <
#166500
1$
1/
#167000
0$
0/
b10101000 <
#167500
1$
1/
#168000
0$
0/
b10101001 <
#168500
1$
1/
#169000
0$
0/
b10101010 <
#169500
1$
1/
#170000
0$
0/
b10101011 <
#170500
1$
1/
#171000
0$
0/
b10101100 <
#171500
1$
1/
#172000
0$
0/
b10101101 <
#172500
1$
1/
#173000
0$
0/
b10101110 <
#173500
1$
1/
#174000
0$
0/
b10101111 <
#174500
1$
1/
#175000
0$
0/
b10110000 <
#175500
1$
1/
#176000
0$
0/
b10110001 <
#176500
1$
1/
#177000
0$
0/
b10110010 <
#177500
1$
1/
#178000
0$
0/
b10110011 <
#178500
1$
1/
#179000
0$
0/
b10110100 <
#179500
1$
1/
#180000
0$
0/
b10110101 <
#180500
1$
1/
#181000
0$
0/
b10110110 <
#181500
1$
1/
#182000
0$
0/
b10110111 <
#182500
1$
1/
#183000
0$
0/
b10111000 <
#183500
1$
1/
#184000
0$
0/
b10111001 <
#184500
1$
1/
#185000
0$
0/
b10111010 <
#185500
1$
1/
#186000
0$
0/
b10111011 <
#186500
1$
1/
#187000
0$
0/
b10111100 <
#187500
1$
1/
#188000
0$
0/
b10111101 <
#188500
1$
1/
#189000
0$
0/
b10111110 <
#189500
1$
1/
#190000
0$
0/
b10111111 <
#190500
1$
1/
#191000
0$
0/
b11000000 <
#191500
1$
1/
#192000
0$
0/
b11000001 <
#192500
1$
1/
#193000
0$
0/
b11000010 <
#193500
1$
1/
#194000
0$
0/
b11000011 <
#194500
1$
1/
#195000
0$
0/
b11000100 <
#195500
1$
1/
#196000
0$
0/
b11000101 <
#196500
1$
1/
#197000
0$
0/
b11000110 <
#197500
1$
1/
#198000
0$
0/
b11000111 <
#198500
1$
1/
#199000
0$
0/
b11001000 <
#199500
1$
1/
#200000
0$
0/
b11001001 <
#200500
1$
1/
#201000
0$
0/
b11001010 <
#201500
1$
1/
#202000
0$
0/
b11001011 <
#202500
1$
1/
#203000
0$
0/
b11001100 <
#203500
1$
1/
#204000
0$
0/
b11001101 <
#204500
1$
1/
#205000
0$
0/
b11001110 <
#205500
1$
1/
#206000
0$
0/
b11001111 <
#206500
1$
1/
#207000
0$
0/
b11010000 <
#207500
1$
1/
#208000
0$
0/
b11010001 <
#208500
1$
1/
#209000
0$
0/
b11010010 <
#209500
1$
1/
#210000
0$
0/
b11010011 <
#210500
1$
1/
#211000
0$
0/
b11010100 <
#211500
1$
1/
#212000
0$
0/
b11010101 <
#212500
1$
1/
#213000
0$
0/
b11010110 <
#213500
1$
1/
#214000
0$
0/
b11010111 <
#214500
1$
1/
#215000
0$
0/
b11011000 <
#215500
1$
1/
#216000
0$
0/
b11011001 <
#216500
1$
1/
#217000
0$
0/
b11011010 <
#217500
1$
1/
#218000
0$
0/
b11011011 <
#218500
1$
1/
#219000
0$
0/
b11011100 <
#219500
1$
1/
#220000
0$
0/
b11011101 <
#220500
1$
1/
#221000
0$
0/
b11011110 <
#221500
1$
1/
#222000
0$
0/
b11011111 <
#222500
1$
1/
#223000
0$
0/
b11100000 <
#223500
1$
1/
#224000
0$
0/
b11100001 <
#224500
1$
1/
#225000
0$
0/
b11100010 <
#225500
1$
1/
#226000
0$
0/
b11100011 <
#226500
1$
1/
#227000
0$
0/
b11100100 <
#227500
1$
1/
#228000
0$
0/
b11100101 <
#228500
1$
1/
#229000
0$
0/
b11100110 <
#229500
1$
1/
#230000
0$
0/
b11100111 <
#230500
1$
1/
#231000
0$
0/
b11101000 <
#231500
1$
1/
#232000
0$
0/
b11101001 <
#232500
1$
1/
#233000
0$
0/
b11101010 <
#233500
1$
1/
#234000
0$
0/
b11101011 <
#234500
1$
1/
#235000
0$
0/
b11101100 <
#235500
1$
1/
#236000
0$
0/
b11101101 <
#236500
1$
1/
#237000
0$
0/
b11101110 <
#237500
1$
1/
#238000
0$
0/
b11101111 <
#238500
1$
1/
#239000
0$
0/
b11110000 <
#239500
1$
1/
#240000
0$
0/
b11110001 <
#240500
1$
1/
#241000
0$
0/
b11110010 <
#241500
1$
1/
#242000
0$
0/
b11110011 <
#242500
1$
1/
#243000
0$
0/
b11110100 <
#243500
1$
1/
#244000
0$
0/
b11110101 <
#244500
1$
1/
#245000
0$
0/
b11110110 <
#245500
1$
1/
#246000
0$
0/
b11110111 <
#246500
1$
1/
#247000
0$
0/
b11111000 <
#247500
1$
1/
#248000
0$
0/
b11111001 <
#248500
1$
1/
#249000
0$
0/
b11111010 <
#249500
1$
1/
#250000
0$
0/
b11111011 <
#250500
1$
1/
#251000
0$
0/
b11111100 <
#251500
1$
1/
#252000
0$
0/
b11111101 <
#252500
1$
1/
#253000
0$
0/
b11111110 <
#253500
1$
1/
#254000
0$
0/
b11111111 <
#254500
1$
1/
#255000
0$
0/
b100000000 <
#255500
1$
1/
#256000
0$
0/
b100000001 <
#256500
1$
1/
#257000
0$
0/
b100000010 <
#257500
1$
1/
#258000
0$
0/
b100000011 <
#258500
1$
1/
#259000
0$
0/
b100000100 <
#259500
1$
1/
#260000
0$
0/
b100000101 <
#260500
1$
1/
#261000
0$
0/
b100000110 <
#261500
1$
1/
#262000
0$
0/
b100000111 <
#262500
1$
1/
#263000
0$
0/
b100001000 <
#263500
1$
1/
#264000
0$
0/
b100001001 <
#264500
1$
1/
#265000
0$
0/
b100001010 <
#265500
1$
1/
#266000
0$
0/
b100001011 <
#266500
1$
1/
#267000
0$
0/
b100001100 <
#267500
1$
1/
#268000
0$
0/
b100001101 <
#268500
1$
1/
#269000
0$
0/
b100001110 <
#269500
1$
1/
#270000
0$
0/
b100001111 <
#270500
1$
1/
#271000
0$
0/
b100010000 <
#271500
1$
1/
#272000
0$
0/
b100010001 <
#272500
1$
1/
#273000
0$
0/
b100010010 <
#273500
1$
1/
#274000
0$
0/
b100010011 <
#274500
1$
1/
#275000
0$
0/
b100010100 <
#275500
1$
1/
#276000
0$
0/
b100010101 <
#276500
1$
1/
#277000
0$
0/
b100010110 <
#277500
1$
1/
#278000
0$
0/
b100010111 <
#278500
1$
1/
#279000
0$
0/
b100011000 <
#279500
1$
1/
#280000
0$
0/
b100011001 <
#280500
1$
1/
#281000
0$
0/
b100011010 <
#281500
1$
1/
#282000
0$
0/
b100011011 <
#282500
1$
1/
#283000
0$
0/
b100011100 <
#283500
1$
1/
#284000
0$
0/
b100011101 <
#284500
1$
1/
#285000
0$
0/
b100011110 <
#285500
1$
1/
#286000
0$
0/
b100011111 <
#286500
1$
1/
#287000
0$
0/
b100100000 <
#287500
1$
1/
#288000
0$
0/
b100100001 <
#288500
1$
1/
#289000
0$
0/
b100100010 <
#289500
1$
1/
#290000
0$
0/
b100100011 <
#290500
1$
1/
#291000
0$
0/
b100100100 <
#291500
1$
1/
#292000
0$
0/
b100100101 <
#292500
1$
1/
#293000
0$
0/
b100100110 <
#293500
1$
1/
#294000
0$
0/
b100100111 <
#294500
1$
1/
#295000
0$
0/
b100101000 <
#295500
1$
1/
#296000
0$
0/
b100101001 <
#296500
1$
1/
#297000
0$
0/
b100101010 <
#297500
1$
1/
#298000
0$
0/
b100101011 <
#298500
1$
1/
#299000
0$
0/
b100101100 <
#299500
1$
1/
#300000
0$
0/
b100101101 <
#300500
1$
1/
#301000
0$
0/
b100101110 <
#301500
1$
1/
#302000
0$
0/
b100101111 <
#302500
1$
1/
#303000
0$
0/
b100110000 <
#303500
1$
1/
#304000
0$
0/
b100110001 <
#304500
1$
1/
#305000
0$
0/
b100110010 <
#305500
1$
1/
#306000
0$
0/
b100110011 <
#306500
1$
1/
#307000
0$
0/
b100110100 <
#307500
1$
1/
#308000
0$
0/
b100110101 <
#308500
1$
1/
#309000
0$
0/
b100110110 <
#309500
1$
1/
#310000
0$
0/
b100110111 <
#310500
1$
1/
#311000
0$
0/
b100111000 <
#311500
1$
1/
#312000
0$
0/
b100111001 <
#312500
1$
1/
#313000
0$
0/
b100111010 <
#313500
1$
1/
#314000
0$
0/
b100111011 <
#314500
1$
1/
#315000
0$
0/
b100111100 <
#315500
1$
1/
#316000
0$
0/
b100111101 <
#316500
1$
1/
#317000
0$
0/
b100111110 <
#317500
1$
1/
#318000
0$
0/
b100111111 <
#318500
1$
1/
#319000
0$
0/
b101000000 <
#319500
1$
1/
#320000
0$
0/
b101000001 <
#320500
1$
1/
#321000
0$
0/
b101000010 <
#321500
1$
1/
#322000
0$
0/
b101000011 <
#322500
1$
1/
#323000
0$
0/
b101000100 <
#323500
1$
1/
#324000
0$
0/
b101000101 <
#324500
1$
1/
#325000
0$
0/
b101000110 <
#325500
1$
1/
#326000
0$
0/
b101000111 <
#326500
1$
1/
#327000
0$
0/
b101001000 <
#327500
1$
1/
#328000
0$
0/
b101001001 <
#328500
1$
1/
#329000
0$
0/
b101001010 <
#329500
1$
1/
#330000
0$
0/
b101001011 <
#330500
1$
1/
#331000
0$
0/
b101001100 <
#331500
1$
1/
#332000
0$
0/
b101001101 <
#332500
1$
1/
#333000
0$
0/
b101001110 <
#333500
1$
1/
#334000
0$
0/
b101001111 <
#334500
1$
1/
#335000
0$
0/
b101010000 <
#335500
1$
1/
#336000
0$
0/
b101010001 <
#336500
1$
1/
#337000
0$
0/
b101010010 <
#337500
1$
1/
#338000
0$
0/
b101010011 <
#338500
1$
1/
#339000
0$
0/
b101010100 <
#339500
1$
1/
#340000
0$
0/
b101010101 <
#340500
1$
1/
#341000
0$
0/
b101010110 <
#341500
1$
1/
#342000
0$
0/
b101010111 <
#342500
1$
1/
#343000
0$
0/
b101011000 <
#343500
1$
1/
#344000
0$
0/
b101011001 <
#344500
1$
1/
#345000
0$
0/
b101011010 <
#345500
1$
1/
#346000
0$
0/
b101011011 <
#346500
1$
1/
#347000
0$
0/
b101011100 <
#347500
1$
1/
#348000
0$
0/
b101011101 <
#348500
1$
1/
#349000
0$
0/
b101011110 <
#349500
1$
1/
#350000
0$
0/
b101011111 <
#350500
1$
1/
#351000
0$
0/
b101100000 <
#351500
1$
1/
#352000
0$
0/
b101100001 <
#352500
1$
1/
#353000
0$
0/
b101100010 <
#353500
1$
1/
#354000
0$
0/
b101100011 <
#354500
1$
1/
#355000
0$
0/
b101100100 <
#355500
1$
1/
#356000
0$
0/
b101100101 <
#356500
1$
1/
#357000
0$
0/
b101100110 <
#357500
1$
1/
#358000
0$
0/
b101100111 <
#358500
1$
1/
#359000
0$
0/
b101101000 <
#359500
1$
1/
#360000
0$
0/
b101101001 <
#360500
1$
1/
#361000
0$
0/
b101101010 <
#361500
1$
1/
#362000
0$
0/
b101101011 <
#362500
1$
1/
#363000
0$
0/
b101101100 <
#363500
1$
1/
#364000
0$
0/
b101101101 <
#364500
1$
1/
#365000
0$
0/
b101101110 <
#365500
1$
1/
#366000
0$
0/
b101101111 <
#366500
1$
1/
#367000
0$
0/
b101110000 <
#367500
1$
1/
#368000
0$
0/
b101110001 <
#368500
1$
1/
#369000
0$
0/
b101110010 <
#369500
1$
1/
#370000
0$
0/
b101110011 <
#370500
1$
1/
#371000
0$
0/
b101110100 <
#371500
1$
1/
#372000
0$
0/
b101110101 <
#372500
1$
1/
#373000
0$
0/
b101110110 <
#373500
1$
1/
#374000
0$
0/
b101110111 <
#374500
1$
1/
#375000
0$
0/
b101111000 <
#375500
1$
1/
#376000
0$
0/
b101111001 <
#376500
1$
1/
#377000
0$
0/
b101111010 <
#377500
1$
1/
#378000
0$
0/
b101111011 <
#378500
1$
1/
#379000
0$
0/
b101111100 <
#379500
1$
1/
#380000
0$
0/
b101111101 <
#380500
1$
1/
#381000
0$
0/
b101111110 <
#381500
1$
1/
#382000
0$
0/
b101111111 <
#382500
1$
1/
#383000
0$
0/
b110000000 <
#383500
1$
1/
#384000
0$
0/
b110000001 <
#384500
1$
1/
#385000
0$
0/
b110000010 <
#385500
1$
1/
#386000
0$
0/
b110000011 <
#386500
1$
1/
#387000
0$
0/
b110000100 <
#387500
1$
1/
#388000
0$
0/
b110000101 <
#388500
1$
1/
#389000
0$
0/
b110000110 <
#389500
1$
1/
#390000
0$
0/
b110000111 <
#390500
1$
1/
#391000
0$
0/
b110001000 <
#391500
1$
1/
#392000
0$
0/
b110001001 <
#392500
1$
1/
#393000
0$
0/
b110001010 <
#393500
1$
1/
#394000
0$
0/
b110001011 <
#394500
1$
1/
#395000
0$
0/
b110001100 <
#395500
1$
1/
#396000
0$
0/
b110001101 <
#396500
1$
1/
#397000
0$
0/
b110001110 <
#397500
1$
1/
#398000
0$
0/
b110001111 <
#398500
1$
1/
#399000
0$
0/
b110010000 <
#399500
1$
1/
#400000
0$
0/
b110010001 <
#400500
1$
1/
#401000
0$
0/
b110010010 <
#401500
1$
1/
#402000
0$
0/
b110010011 <
#402500
1$
1/
#403000
0$
0/
b110010100 <
#403500
1$
1/
#404000
0$
0/
b110010101 <
#404500
1$
1/
#405000
0$
0/
b110010110 <
#405500
1$
1/
#406000
0$
0/
b110010111 <
#406500
1$
1/
#407000
0$
0/
b110011000 <
#407500
1$
1/
#408000
0$
0/
b110011001 <
#408500
1$
1/
#409000
0$
0/
b110011010 <
#409500
1$
1/
#410000
0$
0/
b110011011 <
#410500
1$
1/
#411000
0$
0/
b110011100 <
#411500
1$
1/
#412000
0$
0/
b110011101 <
#412500
1$
1/
#413000
0$
0/
b110011110 <
#413500
1$
1/
#414000
0$
0/
b110011111 <
#414500
1$
1/
#415000
0$
0/
b110100000 <
#415500
1$
1/
#416000
0$
0/
b110100001 <
#416500
1$
1/
#417000
0$
0/
b110100010 <
#417500
1$
1/
#418000
0$
0/
b110100011 <
#418500
1$
1/
#419000
0$
0/
b110100100 <
#419500
1$
1/
#420000
0$
0/
b110100101 <
#420500
1$
1/
#421000
0$
0/
b110100110 <
#421500
1$
1/
#422000
0$
0/
b110100111 <
#422500
1$
1/
#423000
0$
0/
b110101000 <
#423500
1$
1/
#424000
0$
0/
b110101001 <
#424500
1$
1/
#425000
0$
0/
b110101010 <
#425500
1$
1/
#426000
0$
0/
b110101011 <
#426500
1$
1/
#427000
0$
0/
b110101100 <
#427500
1$
1/
#428000
0$
0/
b110101101 <
#428500
1$
1/
#429000
0$
0/
b110101110 <
#429500
1$
1/
#430000
0$
0/
b110101111 <
#430500
1$
1/
#431000
0$
0/
b110110000 <
#431500
1$
1/
#432000
0$
0/
b110110001 <
#432500
1$
1/
#433000
0$
0/
b110110010 <
#433500
1$
1/
#434000
0$
0/
b110110011 <
#434500
1$
1/
#435000
0$
0/
b110110100 <
#435500
1$
1/
#436000
0$
0/
b110110101 <
#436500
1$
1/
#437000
0$
0/
b110110110 <
#437500
1$
1/
#438000
0$
0/
b110110111 <
#438500
1$
1/
#439000
0$
0/
b110111000 <
#439500
1$
1/
#440000
0$
0/
b110111001 <
#440500
1$
1/
#441000
0$
0/
b110111010 <
#441500
1$
1/
#442000
0$
0/
b110111011 <
#442500
1$
1/
#443000
0$
0/
b110111100 <
#443500
1$
1/
#444000
0$
0/
b110111101 <
#444500
1$
1/
#445000
0$
0/
b110111110 <
#445500
1$
1/
#446000
0$
0/
b110111111 <
#446500
1$
1/
#447000
0$
0/
b111000000 <
#447500
1$
1/
#448000
0$
0/
b111000001 <
#448500
1$
1/
#449000
0$
0/
b111000010 <
#449500
1$
1/
#450000
0$
0/
b111000011 <
#450500
1$
1/
#451000
0$
0/
b111000100 <
#451500
1$
1/
#452000
0$
0/
b111000101 <
#452500
1$
1/
#453000
0$
0/
b111000110 <
#453500
1$
1/
#454000
0$
0/
b111000111 <
#454500
1$
1/
#455000
0$
0/
b111001000 <
#455500
1$
1/
#456000
0$
0/
b111001001 <
#456500
1$
1/
#457000
0$
0/
b111001010 <
#457500
1$
1/
#458000
0$
0/
b111001011 <
#458500
1$
1/
#459000
0$
0/
b111001100 <
#459500
1$
1/
#460000
0$
0/
b111001101 <
#460500
1$
1/
#461000
0$
0/
b111001110 <
#461500
1$
1/
#462000
0$
0/
b111001111 <
#462500
1$
1/
#463000
0$
0/
b111010000 <
#463500
1$
1/
#464000
0$
0/
b111010001 <
#464500
1$
1/
#465000
0$
0/
b111010010 <
#465500
1$
1/
#466000
0$
0/
b111010011 <
#466500
1$
1/
#467000
0$
0/
b111010100 <
#467500
1$
1/
#468000
0$
0/
b111010101 <
#468500
1$
1/
#469000
0$
0/
b111010110 <
#469500
1$
1/
#470000
0$
0/
b111010111 <
#470500
1$
1/
#471000
0$
0/
b111011000 <
#471500
1$
1/
#472000
0$
0/
b111011001 <
#472500
1$
1/
#473000
0$
0/
b111011010 <
#473500
1$
1/
#474000
0$
0/
b111011011 <
#474500
1$
1/
#475000
0$
0/
b111011100 <
#475500
1$
1/
#476000
0$
0/
b111011101 <
#476500
1$
1/
#477000
0$
0/
b111011110 <
#477500
1$
1/
#478000
0$
0/
b111011111 <
#478500
1$
1/
#479000
0$
0/
b111100000 <
#479500
1$
1/
#480000
0$
0/
b111100001 <
#480500
1$
1/
#481000
0$
0/
b111100010 <
#481500
1$
1/
#482000
0$
0/
b111100011 <
#482500
1$
1/
#483000
0$
0/
b111100100 <
#483500
1$
1/
#484000
0$
0/
b111100101 <
#484500
1$
1/
#485000
0$
0/
b111100110 <
#485500
1$
1/
#486000
0$
0/
b111100111 <
#486500
1$
1/
#487000
0$
0/
b111101000 <
#487500
1$
1/
#488000
0$
0/
b111101001 <
#488500
1$
1/
#489000
0$
0/
b111101010 <
#489500
1$
1/
#490000
0$
0/
b111101011 <
#490500
1$
1/
#491000
0$
0/
b111101100 <
#491500
1$
1/
#492000
0$
0/
b111101101 <
#492500
1$
1/
#493000
0$
0/
b111101110 <
#493500
1$
1/
#494000
0$
0/
b111101111 <
#494500
1$
1/
#495000
0$
0/
b111110000 <
#495500
1$
1/
#496000
0$
0/
b111110001 <
#496500
1$
1/
#497000
0$
0/
b111110010 <
#497500
1$
1/
#498000
0$
0/
b111110011 <
#498500
1$
1/
#499000
0$
0/
b111110100 <
#499500
1$
1/
#500000
0$
0/
b111110101 <
#500500
1$
1/
#501000
0$
0/
b111110110 <
#501500
1$
1/
#502000
0$
0/
b111110111 <
#502500
1$
1/
#503000
0$
0/
b111111000 <
#503500
1&
1$
1/
1%
10
